{
  "project_info": {
    "project_number": "838150484093",
    "firebase_url": "https://go-gogourious.firebaseio.com",
    "project_id": "go-gogourious",
    "storage_bucket": "go-gogourious.appspot.com"
  },
  "client": [
    {
      "client_info": {
        "mobilesdk_app_id": "1:838150484093:android:67ef7dad0c66f86e",
        "android_client_info": {
          "package_name": "com.sinmobile.gogorgeos"
        }
      },
      "oauth_client": [
        {
          "client_id": "838150484093-qvvmv8tm4f0o0phovbhcejgblanjv77t.apps.googleusercontent.com",
          "client_type": 1,
          "android_info": {
            "package_name": "com.sinmobile.gogorgeos",
            "certificate_hash": "08894c10301f8ffdeab7a0f0304efb56f02316fc"
          }
        },
        {
          "client_id": "838150484093-evf6eqncce3c0tgepvtnibfsef6b1h94.apps.googleusercontent.com",
          "client_type": 3
        }
      ],
      "api_key": [
        {
          "current_key": "AIzaSyAjulnmupOgN9bqbpnUJlMeH7xj0JUVzO4"
        }
      ],
      "services": {
        "analytics_service": {
          "status": 1
        },
        "appinvite_service": {
          "status": 2,
          "other_platform_oauth_client": [
            {
              "client_id": "838150484093-evf6eqncce3c0tgepvtnibfsef6b1h94.apps.googleusercontent.com",
              "client_type": 3
            },
            {
              "client_id": "838150484093-cf7745uk9mqcf294ob9i5v3bhl0areb1.apps.googleusercontent.com",
              "client_type": 2,
              "ios_info": {
                "bundle_id": "com.taixing.gogoreous"
              }
            }
          ]
        },
        "ads_service": {
          "status": 2
        }
      }
    }
  ],
  "configuration_version": "1"
}